\relax 
\@writefile{toc}{\contentsline {section}{\numberline {1}Overview}{1}}
\@writefile{toc}{\contentsline {section}{\numberline {2}Syntactic Analysis}{1}}
\@writefile{lol}{\contentsline {lstlisting}{\numberline {1}syntactic/grammar.g4}{1}}
\@writefile{lol}{\contentsline {lstlisting}{\numberline {2}syntactic/grammar.g4}{1}}
\@writefile{lol}{\contentsline {lstlisting}{\numberline {3}syntactic/grammar.g4}{1}}
\@writefile{toc}{\contentsline {section}{\numberline {3}Semantic Analysis}{1}}
\@writefile{lol}{\contentsline {lstlisting}{\numberline {4}semantic/Translator.java}{2}}
\@writefile{toc}{\contentsline {section}{\numberline {4}Optimization}{2}}
\@writefile{toc}{\contentsline {subsection}{\numberline {4.1}Local Register Allocation}{2}}
\@writefile{lol}{\contentsline {lstlisting}{\numberline {5}optimizer/Analyzer.java}{3}}
\@writefile{toc}{\contentsline {subsection}{\numberline {4.2}Global Register Allocation}{3}}
\@writefile{lol}{\contentsline {lstlisting}{\numberline {6}variable/Variable.java}{3}}
\@writefile{toc}{\contentsline {subsection}{\numberline {4.3}Dead Code Elimination}{3}}
\@writefile{lol}{\contentsline {lstlisting}{\numberline {7}code/Calc.java}{3}}
\@writefile{toc}{\contentsline {subsection}{\numberline {4.4}Boolean Expression Optimization}{4}}
\@writefile{lol}{\contentsline {lstlisting}{\numberline {8}semantic/Translator.java}{4}}
\@writefile{toc}{\contentsline {subsection}{\numberline {4.5}\color  {red}{Inline Expansion}}{4}}
\@writefile{lol}{\contentsline {lstlisting}{\numberline {9}code/Label.java}{4}}
\@writefile{lol}{\contentsline {lstlisting}{\numberline {10}code/Label.java}{4}}
\@writefile{toc}{\contentsline {section}{\numberline {5}Assembly Generation}{5}}
\@writefile{lol}{\contentsline {lstlisting}{\numberline {11}code/Calc.java}{5}}
\@writefile{toc}{\contentsline {section}{\numberline {6}Conclusion}{5}}
\newlabel{sigplanconf@finalpage}{{6}{5}}
